{
	"auth": {},
	"function": {
		"sipandcolrlamda": {
			"service": "Lambda",
			"providerPlugin": "awscloudformation",
			"build": true,
			"dependsOn": []
		}
	},
	"api": {
		"sipandcolrapi": {
			"service": "API Gateway",
			"providerPlugin": "awscloudformation",
			"dependsOn": [
				{
					"category": "function",
					"resourceName": "sipandcolrlamda",
					"attributes": [
						"Name",
						"Arn"
					]
				}
			]
		}
	},
	"storage": {
		"sipandcolrapibucket": {
			"service": "S3",
			"providerPlugin": "awscloudformation"
		}
	},
	"hosting": {
		"S3AndCloudFront": {
			"service": "S3AndCloudFront",
			"providerPlugin": "awscloudformation"
		}
	}
}